[
  {
    "nom": "Dupont",
    "prenom": "Jean",
    "nationalite": "FR",
    "date": 1617895600000,
    "texte": "Superbe visite ! Le musée offre une expérience inoubliable grâce à ses expositions riches et variées. Chaque pièce raconte une histoire fascinante, permettant de voyager à travers le temps et les cultures. Je recommande vivement à tous les amateurs d'art et d'histoire.",
    "note": 5
  },
  {
    "nom": "Smith",
    "prenom": "John",
    "nationalite": "GB",
    "date": 1618000000000,
    "texte": "An amazing visit! The museum's rich and varied exhibitions offer an unforgettable experience. Each piece tells a fascinating story, allowing you to travel through time and cultures. Highly recommended for all art and history enthusiasts.",
    "note": 5
  },
  {
    "nom": "Schneider",
    "prenom": "Hans",
    "nationalite": "DE",
    "date": 1618100000000,
    "texte": "Wunderbare Besichtigung! Das Museum bietet ein unvergessliches Erlebnis dank seiner reichen und vielfältigen Ausstellungen. Jedes Stück erzählt eine faszinierende Geschichte, die es ermöglicht, durch Zeit und Kulturen zu reisen. Ich empfehle es allen Kunst- und Geschichtsliebhabern wärmstens.",
    "note": 5
  },
  {
    "nom": "Martin",
    "prenom": "Lucie",
    "nationalite": "FR",
    "date": 1618200000000,
    "texte": "Visite impressionnante ! Les collections du musée sont magnifiques et bien mises en valeur. L'accueil est chaleureux et le personnel très compétent. Un incontournable pour ceux qui visitent la ville.",
    "note": 4
  },
  {
    "nom": "Johnson",
    "prenom": "Emily",
    "nationalite": "GB",
    "date": 1618300000000,
    "texte": "A fantastic place! The museum's collections are beautiful and well-presented. The staff are welcoming and very knowledgeable. A must-visit for anyone coming to the city.",
    "note": 4
  },
  {
    "nom": "Bauer",
    "prenom": "Friedrich",
    "nationalite": "DE",
    "date": 1618400000000,
    "texte": "Ein fantastischer Ort! Die Sammlungen des Museums sind wunderschön und gut präsentiert. Das Personal ist einladend und sehr kompetent. Ein Muss für jeden, der die Stadt besucht.",
    "note": 4
  },
  {
    "nom": "Leroy",
    "prenom": "Sophie",
    "nationalite": "FR",
    "date": 1618500000000,
    "texte": "Une expérience enrichissante ! Le musée regorge d'œuvres captivantes. La visite guidée était instructive et a ajouté de la valeur à notre visite. Je reviendrai certainement avec des amis.",
    "note": 5
  },
  {
    "nom": "Wilson",
    "prenom": "Charles",
    "nationalite": "GB",
    "date": 1618600000000,
    "texte": "An enriching experience! The museum is full of captivating works. The guided tour was informative and added value to our visit. I will definitely return with friends.",
    "note": 5
  },
  {
    "nom": "Weber",
    "prenom": "Julia",
    "nationalite": "DE",
    "date": 1618700000000,
    "texte": "Eine bereichernde Erfahrung! Das Museum ist voll von fesselnden Werken. Die Führung war informativ und hat unseren Besuch aufgewertet. Ich werde definitiv mit Freunden zurückkommen.",
    "note": 5
  },
  {
    "nom": "Bernard",
    "prenom": "Claire",
    "nationalite": "FR",
    "date": 1618800000000,
    "texte": "Visite inoubliable ! Le musée est un véritable trésor culturel. Les œuvres exposées sont d'une grande beauté et diversité. Un grand merci pour cette découverte.",
    "note": 5
  },
  {
    "nom": "Brown",
    "prenom": "Oliver",
    "nationalite": "GB",
    "date": 1618900000000,
    "texte": "Unforgettable visit! The museum is a true cultural treasure. The works on display are of great beauty and diversity. Many thanks for this discovery.",
    "note": 5
  },
  {
    "nom": "Fischer",
    "prenom": "Lukas",
    "nationalite": "DE",
    "date": 1619000000000,
    "texte": "Unvergesslicher Besuch! Das Museum ist ein wahrer kultureller Schatz. Die ausgestellten Werke sind von großer Schönheit und Vielfalt. Vielen Dank für diese Entdeckung.",
    "note": 5
  },
  {
    "nom": "Petit",
    "prenom": "Marie",
    "nationalite": "FR",
    "date": 1619100000000,
    "texte": "Chaque visite au musée est une nouvelle aventure. Les expositions temporaires sont toujours surprenantes et enrichissantes. Bravo pour le travail remarquable !",
    "note": 4
  },
  {
    "nom": "Walker",
    "prenom": "Liam",
    "nationalite": "GB",
    "date": 1619200000000,
    "texte": "Every visit to the museum is a new adventure. The temporary exhibitions are always surprising and enriching. Kudos for the remarkable work!",
    "note": 4
  },
  {
    "nom": "König",
    "prenom": "Anna",
    "nationalite": "DE",
    "date": 1619300000000,
    "texte": "Jeder Besuch im Museum ist ein neues Abenteuer. Die Sonderausstellungen sind immer überraschend und bereichernd. Ein großes Lob für die bemerkenswerte Arbeit!",
    "note": 4
  },
  {
    "nom": "Moreau",
    "prenom": "Émilie",
    "nationalite": "FR",
    "date": 1619400000000,
    "texte": "Une journée magique au musée ! Les guides sont passionnés et captivants, rendant chaque exposition vivante et intéressante. Un must pour les curieux de tous âges.",
    "note": 5
  },
  {
    "nom": "Evans",
    "prenom": "Rachel",
    "nationalite": "GB",
    "date": 1619500000000,
    "texte": "A magical day at the museum! The guides are passionate and captivating, making each exhibition lively and interesting. A must-visit for the curious of all ages.",
    "note": 5
  },
  {
    "nom": "Becker",
    "prenom": "Max",
    "nationalite": "DE",
    "date": 1619600000000,
    "texte": "Ein magischer Tag im Museum! Die Führer sind leidenschaftlich und fesselnd, machen jede Ausstellung lebendig und interessant. Ein Muss für Neugierige aller Altersgruppen.",
    "note": 5
  },
  {
    "nom": "Girard",
    "prenom": "Nicolas",
    "nationalite": "FR",
    "date": 1619700000000,
    "texte": "Visite exceptionnelle ! Le musée sait comment mettre en lumière ses collections pour émerveiller petits et grands. Une expérience à renouveler sans hésitation.",
    "note": 4
  },
  {
    "nom": "Hughes",
    "prenom": "Edward",
    "nationalite": "GB",
    "date": 1619800000000,
    "texte": "Exceptional visit! The museum knows how to highlight its collections to amaze both young and old. An experience to be repeated without hesitation.",
    "note": 4
  },
  {
    "nom": "Schmitt",
    "prenom": "Sarah",
    "nationalite": "DE",
    "date": 1619900000000,
    "texte": "Außergewöhnlicher Besuch! Das Museum weiß, wie es seine Sammlungen hervorheben kann, um Jung und Alt zu verzaubern. Ein Erlebnis, das ohne Zögern zu wiederholen ist.",
    "note": 4
  },
  {
    "nom": "Lefebvre",
    "prenom": "Mathilde",
    "nationalite": "FR",
    "date": 1620000000000,
    "texte": "Le musée est un véritable joyau, offrant une plongée dans l'art et l'histoire. Les expositions sont soigneusement choisies et présentées de manière experte. Un plaisir renouvelé à chaque visite.",
    "note": 5
  },
  {
    "nom": "Owen",
    "prenom": "Lucy",
    "nationalite": "GB",
    "date": 1620100000000,
    "texte": "The museum is a real gem, offering a dive into art and history. The exhibitions are carefully selected and expertly presented. A renewed pleasure with each visit.",
    "note": 5
  },
  {
    "nom": "Hartmann",
    "prenom": "Julian",
    "nationalite": "DE",
    "date": 1620200000000,
    "texte": "Das Museum ist ein echtes Juwel und bietet einen Einblick in Kunst und Geschichte. Die Ausstellungen sind sorgfältig ausgewählt und fachmännisch präsentiert. Ein erneutes Vergnügen bei jedem Besuch.",
    "note": 5
  },
  {
    "nom": "Roux",
    "prenom": "Julie",
    "nationalite": "FR",
    "date": 1620300000000,
    "texte": "Une découverte enrichissante à chaque salle. Le musée surprend par la diversité de ses œuvres et la manière dont elles sont mises en scène. Un incontournable pour les amoureux de culture.",
    "note": 5
  },
  {
    "nom": "Durand",
    "prenom": "Élise",
    "nationalite": "FR",
    "date": 1620400000000,
    "texte": "Chaque exposition visitée a été une révélation. Le musée fait un travail remarquable pour rendre l'art accessible et captivant. Une sortie culturelle de premier choix.",
    "note": 4
  },
  {
    "nom": "Clark",
    "prenom": "Emma",
    "nationalite": "GB",
    "date": 1620500000000,
    "texte": "Each exhibition visited was a revelation. The museum does a remarkable job of making art accessible and engaging. A top-notch cultural outing.",
    "note": 4
  },
  {
    "nom": "Zimmermann",
    "prenom": "Felix",
    "nationalite": "DE",
    "date": 1620600000000,
    "texte": "Jede besuchte Ausstellung war eine Offenbarung. Das Museum leistet hervorragende Arbeit, um Kunst zugänglich und fesselnd zu machen. Ein erstklassiger kultureller Ausflug.",
    "note": 4
  },
  {
    "nom": "Blanc",
    "prenom": "Théo",
    "nationalite": "FR",
    "date": 1620700000000,
    "texte": "Magnifique ! Le musée offre une immersion totale dans l'univers de l'art, avec des pièces d'une rare beauté. Les commentaires des guides enrichissent l'expérience.",
    "note": 5
  },
  {
    "nom": "Green",
    "prenom": "Olivia",
    "nationalite": "GB",
    "date": 1620800000000,
    "texte": "Magnificent! The museum offers a total immersion into the world of art, with pieces of rare beauty. The guides' commentary enriches the experience.",
    "note": 5
  },
  {
    "nom": "Müller",
    "prenom": "Sophie",
    "nationalite": "DE",
    "date": 1620900000000,
    "texte": "Prachtvoll! Das Museum bietet eine totale Immersion in die Welt der Kunst mit selten schönen Stücken. Die Kommentare der Führer bereichern das Erlebnis.",
    "note": 5
  },
  {
    "nom": "Fontaine",
    "prenom": "Jérôme",
    "nationalite": "FR",
    "date": 1621000000000,
    "texte": "Instructif et fascinant. Le musée présente des expositions variées qui parlent à tous les publics. C'est un lieu d'apprentissage et de découverte sans égal.",
    "note": 4
  },
  {
    "nom": "Hall",
    "prenom": "Nathan",
    "nationalite": "GB",
    "date": 1621100000000,
    "texte": "Educational and fascinating. The museum presents varied exhibitions that speak to all audiences. It's a place of learning and discovery like no other.",
    "note": 4
  },
  {
    "nom": "Fuchs",
    "prenom": "Leonie",
    "nationalite": "DE",
    "date": 1621200000000,
    "texte": "Lehrreich und faszinierend. Das Museum präsentiert vielfältige Ausstellungen, die alle Zielgruppen ansprechen. Es ist ein Ort des Lernens und Entdeckens wie kein anderer.",
    "note": 4
  },
  {
    "nom": "Mercier",
    "prenom": "Alice",
    "nationalite": "FR",
    "date": 1621300000000,
    "texte": "Une visite qui laisse des souvenirs impérissables. Le musée excelle dans la manière de présenter l'art sous toutes ses formes. Vivement la prochaine exposition !",
    "note": 5
  }
]